11 Data frames – Thinking in R
…
11.3.1 Two-dimensional indexing

Because a data frame has rows and columns, it also accepts two indices: [row, column].

penguins[1, ]
#> # A tibble: 1 × 8
#>   species island   bill_length_mm bill_depth_mm flipper_length_mm body_mass_g
#>   <fct>   <fct>             <dbl>         <dbl>             <int>       <int>
#> 1 Adelie  Torgers…           39.1          18.7               181        3750
#> # ℹ 2 more variables: sex <fct>, year <int>

First row, all columns, returned as a data frame. Now try the reverse:

penguins[, 1]
#> # A tibble: 344 × 1
#>    species
#>    <fct>  
#>  1 Adelie 
#>  2 Adelie 
#>  3 Adelie 
#>  4 Adelie 
#>  5 Adelie 
#>  6 Adelie 
#>  7 Adelie 
#>  8 Adelie 
#>  9 Adelie 
#> 10 Adelie 
#> # ℹ 334 more rows
…
TipOpinion

Partial matching is autocomplete for bugs. You type df$sp, R guesses you meant df$species, and your code works until someone adds a column called spine_count. Then df$sp becomes ambiguous and silently returns NULL. A tibble catches this immediately.

A tibble is still a data frame, which means every function that accepts a data frame accepts a tibble:

is.data.frame(tbl)
#> [1] TRUE

Convert between them with as_tibble() and as.data.frame():

as_tibble(mtcars)
#> # A tibble: 32 × 11
#>      mpg   cyl  disp    hp  drat    wt  qsec    vs    am  gear  carb
#>    <dbl> <dbl> <dbl> <dbl> <dbl> <dbl> <dbl> <dbl> <dbl> <dbl> <dbl>
#>  1  21       6  160    110  3.9   2.62  16.5     0     1     4     4
#>  2  21       6  160    110  3.9   2.88  17.0     0     1     4     4
#>  3  22.8     4  108     93  3.85  2.32  18.6     1     1     4     1
#>  4  21.4     6  258    110  3.08  3.22  19.4     1     0     3     1
#>  5  18.7     8  360    175  3.15  3.44  17.0     0     0     3     2
#>  6  18.1     6  225    105  2.76  3.46  20.2     1     0     3     1
#>  7  14.3     8  360    245  3.21  3.57  15.8     0     0     3     4
#>  8  24.4     4  147.    62  3.69  3.19  20       1     0     4     2
#>  9  22.8     4  141.    95  3.92  3.15  22.9     1     0     4     2
#> 10  19.2     6  168.   123  3.92  3.44  18.3     1     0     4     4
#> # ℹ 22 more rows
…
