14 Data transformation – Thinking in R
…
The penguins data frame (loaded by palmerpenguins) has 344 rows and 8 columns: species, island, bill measurements, flipper length, body mass, sex, and year. Every example in this chapter uses it.

penguins
#> # A tibble: 344 × 8
#>    species island  bill_length_mm bill_depth_mm flipper_length_mm body_mass_g
#>    <fct>   <fct>            <dbl>         <dbl>             <int>       <int>
#>  1 Adelie  Torger…           39.1          18.7               181        3750
#>  2 Adelie  Torger…           39.5          17.4               186        3800
#>  3 Adelie  Torger…           40.3          18                 195        3250
#>  4 Adelie  Torger…           NA            NA                  NA          NA
#>  5 Adelie  Torger…           36.7          19.3               193        3450
#>  6 Adelie  Torger…           39.3          20.6               190        3650
#>  7 Adelie  Torger…           38.9          17.8               181        3625
#>  8 Adelie  Torger…           39.2          19.6               195        4675
#>  9 Adelie  Torger…           34.1          18.1               193        3475
#> 10 Adelie  Torger…           42            20.2               190        4250
#> # ℹ 334 more rows
#> # ℹ 2 more variables: sex <fct>, year <int>

14.2 filter(): keep rows

You have 344 penguins. You only care about the Adelie ones. How do you throw the rest away?

filter(penguins, species == "Adelie")
#> # A tibble: 152 × 8
#>    species island  bill_length_mm bill_depth_mm flipper_length_mm body_mass_g
#>    <fct>   <fct>            <dbl>         <dbl>             <int>       <int>
#>  1 Adelie  Torger…           39.1          18.7               181        3750
#>  2 Adelie  Torger…           39.5          17.4               186        3800
#>  3 Adelie  Torger…           40.3          18                 195        3250
#>  4 Adelie  Torger…           NA            NA                  NA          NA
#>  5 Adelie  Torger…           36.7          19.3               193        3450
#>  6 Adelie  Torger…           39.3          20.6               190        3650
#>  7 Adelie  Torger…           38.9          17.8               181        3625
#>  8 Adelie  Torger…           39.2          19.6               195        4675
#>  9 Adelie  Torger…           34.1          18.1               193        3475
#> 10 Adelie  Torger…           42            20.2               190        4250
#> # ℹ 142 more rows
#> # ℹ 2 more variables: sex <fct>, year <int>
…
Exercises

Filter penguins to keep only female penguins from Biscoe island.

Filter penguins to keep rows where flipper_length_mm is greater than 200 or body_mass_g is less than 3000.

How many rows have missing values in sex? Use filter() and nrow().

14.3 select(): pick columns

Eight columns is manageable. Eighty is not. When you only need species, bill length, and body mass, carrying around five extra columns clutters every printout, slows every join, and obscures what matters. select() strips a data frame down to the columns you name.

select(penguins, species, bill_length_mm, body_mass_g)
#> # A tibble: 344 × 3
#>    species bill_length_mm body_mass_g
#>    <fct>            <dbl>       <int>
#>  1 Adelie            39.1        3750
#>  2 Adelie            39.5        3800
#>  3 Adelie            40.3        3250
#>  4 Adelie            NA            NA
#>  5 Adelie            36.7        3450
#>  6 Adelie            39.3        3650
#>  7 Adelie            38.9        3625
#>  8 Adelie            39.2        4675
#>  9 Adelie            34.1        3475
#> 10 Adelie            42          4250
#> # ℹ 334 more rows
…
For more flexible selection, dplyr provides helper functions. starts_with(), ends_with(), and contains() match column names by pattern:

select(penguins, starts_with("bill"))

select(penguins, ends_with("mm"))

where() selects columns based on their content, not their name. where(is.numeric) keeps every numeric column:

select(penguins, species, where(is.numeric))

You can rename columns inside select():

select(penguins, species, mass = body_mass_g)
#> # A tibble: 344 × 2
#>    species  mass
#>    <fct>   <int>
#>  1 Adelie   3750
#>  2 Adelie   3800
#>  3 Adelie   3250
#>  4 Adelie     NA
#>  5 Adelie   3450
#>  6 Adelie   3650
#>  7 Adelie   3625
#>  8 Adelie   4675
#>  9 Adelie   3475
#> 10 Adelie   4250
#> # ℹ 334 more rows
…
Exercises

Select all columns from penguins that contain the string "length".

Select species, island, and all numeric columns. (Hint: combine names and where().)

What is the difference between select(penguins, mass = body_mass_g) and rename(penguins, mass = body_mass_g)? Try both.

14.4 mutate(): compute new columns

Body mass is recorded in grams, but your collaborator’s model expects kilograms.

mutate(penguins, mass_kg = body_mass_g / 1000)
#> # A tibble: 344 × 9
#>    species island  bill_length_mm bill_depth_mm flipper_length_mm body_mass_g
#>    <fct>   <fct>            <dbl>         <dbl>             <int>       <int>
#>  1 Adelie  Torger…           39.1          18.7               181        3750
#>  2 Adelie  Torger…           39.5          17.4               186        3800
#>  3 Adelie  Torger…           40.3          18                 195        3250
#>  4 Adelie  Torger…           NA            NA                  NA          NA
#>  5 Adelie  Torger…           36.7          19.3               193        3450
#>  6 Adelie  Torger…           39.3          20.6               190        3650
#>  7 Adelie  Torger…           38.9          17.8               181        3625
#>  8 Adelie  Torger…           39.2          19.6               195        4675
#>  9 Adelie  Torger…           34.1          18.1               193        3475
#> 10 Adelie  Torger…           42            20.2               190        4250
#> # ℹ 334 more rows
#> # ℹ 3 more variables: sex <fct>, year <int>, mass_kg <dbl>
…
If you want to keep only the new columns and drop everything else, use .keep = "none":

mutate(
  penguins,
  mass_kg = body_mass_g / 1000,
  .keep = "none"
)
#> # A tibble: 344 × 1
#>    mass_kg
#>      <dbl>
#>  1    3.75
#>  2    3.8 
#>  3    3.25
#>  4   NA   
#>  5    3.45
#>  6    3.65
#>  7    3.62
#>  8    4.68
#>  9    3.48
#> 10    4.25
#> # ℹ 334 more rows
…
Exercises

Compute the median flipper_length_mm for each species.

Use group_by() and summarise() to find the maximum bill_length_mm per species and island combination.

Use count() to find how many penguins were observed in each year.

14.6 arrange(): order rows

arrange() sorts rows. The default is ascending:

arrange(penguins, body_mass_g)
#> # A tibble: 344 × 8
#>    species  island bill_length_mm bill_depth_mm flipper_length_mm body_mass_g
#>    <fct>    <fct>           <dbl>         <dbl>             <int>       <int>
#>  1 Chinstr… Dream            46.9          16.6               192        2700
#>  2 Adelie   Biscoe           36.5          16.6               181        2850
#>  3 Adelie   Biscoe           36.4          17.1               184        2850
#>  4 Adelie   Biscoe           34.5          18.1               187        2900
#>  5 Adelie   Dream            33.1          16.1               178        2900
#>  6 Adelie   Torge…           38.6          17                 188        2900
#>  7 Chinstr… Dream            43.2          16.6               187        2900
#>  8 Adelie   Biscoe           37.9          18.6               193        2925
#>  9 Adelie   Dream            37.5          18.9               179        2975
#> 10 Adelie   Dream            37            16.9               185        3000
#> # ℹ 334 more rows
#> # ℹ 2 more variables: sex <fct>, year <int>
…
