15 Pipes and composition – Thinking in R
…
penguins |>
  select(species, body_mass_g) |>
  filter(species == "Adelie") |>
  arrange(body_mass_g)
#> # A tibble: 152 × 2
#>    species body_mass_g
#>    <fct>         <int>
#>  1 Adelie         2850
#>  2 Adelie         2850
#>  3 Adelie         2900
#>  4 Adelie         2900
#>  5 Adelie         2900
#>  6 Adelie         2925
#>  7 Adelie         2975
#>  8 Adelie         3000
#>  9 Adelie         3000
#> 10 Adelie         3050
#> # ℹ 142 more rows
…
